{
  "project_info": {
    "project_number": "797525974401",
    "project_id": "gunhdwallpaper",
    "storage_bucket": "gunhdwallpaper.appspot.com"
  },
  "client": [
    {
      "client_info": {
        "mobilesdk_app_id": "1:797525974401:android:ea3f590313b5b8408f1c80",
        "android_client_info": {
          "package_name": "com.anhttvn.gunhdwallpaper"
        }
      },
      "oauth_client": [
        {
          "client_id": "797525974401-iifsmvcn9em7ecp36fiucti4n7659lrf.apps.googleusercontent.com",
          "client_type": 3
        }
      ],
      "api_key": [
        {
          "current_key": "AIzaSyA1yJ4elYpjMc6vGpqMNz_93yfk9TwVYRY"
        }
      ],
      "services": {
        "appinvite_service": {
          "other_platform_oauth_client": [
            {
              "client_id": "797525974401-iifsmvcn9em7ecp36fiucti4n7659lrf.apps.googleusercontent.com",
              "client_type": 3
            }
          ]
        }
      }
    }
  ],
  "configuration_version": "1"
}